Lab 9/Lab09-20240424T193257Z-001/Lab09/singlecycle.vcd
$date
	Wed Apr 24 20:24:31 2024
$end
$version
	Icarus Verilog
$end
$timescale
	1ps
$end
$scope module SingleCycleProcTest_v $end
$var wire 64 ! currentPC [63:0] $end
$var wire 64 " MemtoRegOut [63:0] $end
$var reg 1 # CLK $end
$var reg 1 $ Reset_L $end
$var reg 8 % passed [7:0] $end
$var reg 64 & startPC [63:0] $end
$var reg 16 ' watchdog [15:0] $end
$scope module uut $end
$var wire 1 # CLK $end
$var wire 1 $ resetl $end
$var wire 64 ( startpc [63:0] $end
$var wire 1 ) zero $end
$var wire 1 * uncond_branch $end
$var wire 3 + signop [2:0] $end
$var wire 5 , rn [4:0] $end
$var wire 5 - rm [4:0] $end
$var wire 1 . regwrite $end
$var wire 64 / regoutB [63:0] $end
$var wire 64 0 regoutA [63:0] $end
$var wire 64 1 regB [63:0] $end
$var wire 1 2 reg2loc $end
$var wire 5 3 rd [4:0] $end
$var wire 11 4 opcode [10:0] $end
$var wire 64 5 nextpc [63:0] $end
$var wire 1 6 memwrite $end
$var wire 1 7 memread $end
$var wire 1 8 mem2reg $end
$var wire 32 9 instruction [31:0] $end
$var wire 64 : extimm [63:0] $end
$var wire 1 ; branch $end
$var wire 1 < alusrc $end
$var wire 64 = aluout [63:0] $end
$var wire 4 > aluctrl [3:0] $end
$var wire 5 ? R2 [4:0] $end
$var wire 64 @ MemtoRegOut [63:0] $end
$var wire 64 A Memout [63:0] $end
$var reg 64 B currentpc [63:0] $end
$scope module ALU $end
$var wire 64 C BusB [63:0] $end
$var wire 64 D BusA [63:0] $end
$var wire 4 E ALUCtrl [3:0] $end
$var reg 64 F BusW [63:0] $end
$var reg 1 ) Zero $end
$upscope $end
$scope module DataMemory $end
$var wire 64 G Address [63:0] $end
$var wire 1 # Clock $end
$var wire 64 H WriteData [63:0] $end
$var wire 1 6 MemoryWrite $end
$var wire 1 7 MemoryRead $end
$var reg 64 I ReadData [63:0] $end
$scope task initset $end
$var reg 64 J addr [63:0] $end
$var reg 64 K data [63:0] $end
$upscope $end
$upscope $end
$scope module Extend $end
$var wire 32 L Imm16 [31:0] $end
$var wire 3 M Ctrl [2:0] $end
$var reg 64 N BusImm [63:0] $end
$var reg 1 O polarity $end
$upscope $end
$scope module NextPClogic $end
$var wire 1 ) ALUZero $end
$var wire 64 P CurrentPC [63:0] $end
$var wire 64 Q NextPC [63:0] $end
$var wire 64 R SignExtImm64 [63:0] $end
$var wire 1 * Uncondbranch $end
$var wire 1 ; Branch $end
$var reg 64 S Imm [63:0] $end
$var reg 64 T newpc [63:0] $end
$upscope $end
$scope module Register $end
$var wire 64 U BusW [63:0] $end
$var wire 1 # Clk $end
$var wire 5 V RA [4:0] $end
$var wire 5 W RB [4:0] $end
$var wire 5 X RW [4:0] $end
$var wire 1 . RegWr $end
$var wire 64 Y BusB [63:0] $end
$var wire 64 Z BusA [63:0] $end
$upscope $end
$scope module control $end
$var wire 11 [ opcode [10:0] $end
$var reg 4 \ aluop [3:0] $end
$var reg 1 < alusrc $end
$var reg 1 ; branch $end
$var reg 1 8 mem2reg $end
$var reg 1 7 memread $end
$var reg 1 6 memwrite $end
$var reg 1 2 reg2loc $end
$var reg 1 . regwrite $end
$var reg 3 ] signop [2:0] $end
$var reg 1 * uncond_branch $end
$upscope $end
$scope module imem $end
$var wire 64 ^ Address [63:0] $end
$var reg 32 _ Data [31:0] $end
$upscope $end
$upscope $end
$scope task allPassed $end
$var reg 8 ` numTests [7:0] $end
$var reg 8 a passed [7:0] $end
$upscope $end
$scope task passTest $end
$var reg 64 b actualOut [63:0] $end
$var reg 64 c expectedOut [63:0] $end
$var reg 8 d passed [7:0] $end
$var reg 257 e testType [256:0] $end
$upscope $end
$upscope $end
$enddefinitions $end
#0
$dumpvars
bx e
bx d
bx c
bx b
bx a
bx `
bx _
bx ^
bx ]
bx \
bx [
bx Z
bx Y
bx X
bx W
bx V
bx U
bx T
bx S
bx R
bx Q
bx P
xO
bx N
bx M
bx L
b0 K
b100000 J
bx I
bx H
bx G
bx F
bx E
bx D
bx C
bx B
bx A
bx @
bx ?
bx >
bx =
x<
x;
bx :
bx 9
x8
x7
x6
bx 5
bx 4
bx 3
x2
bx 1
bx 0
bx /
x.
bx -
bx ,
bx +
x*
x)
b0 (
b0 '
b0 &
b0 %
1$
0#
bx "
bx !
$end
#60000
1#
#120000
b1 '
0#
#121000
0$
#180000
1#
#240000
b10 '
0#
#243000
b0 1
b0 C
0)
b0 :
b0 N
b0 R
0O
b0x00x ?
b0x00x W
06
1<
1.
b10 >
b10 E
b10 \
b1 +
b1 M
b1 ]
0*
0;
17
18
b0x00x ,
b11111000010 4
b11111000010 [
b11111 -
b11111 V
b1001 3
b1001 X
b100 5
b100 Q
b100 T
b11111000010000000000001111101001 9
b11111000010000000000001111101001 L
b11111000010000000000001111101001 _
b0 !
b0 B
b0 P
b0 ^
#245000
1)
b0 =
b0 F
b0 G
b0 0
b0 D
b0 Z
#300000
b1 "
b1 @
b1 U
b1 A
b1 I
1$
1#
#360000
b11 '
0#
#363000
0)
b1000 =
b1000 F
b1000 G
b0x0x0 ,
b0x0x0 ?
b0x0x0 W
b1000 1
b1000 C
b1010 3
b1010 X
b1000 :
b1000 N
b1000 R
b1000 5
b1000 Q
b1000 T
b11111000010000001000001111101010 9
b11111000010000001000001111101010 L
b11111000010000001000001111101010 _
b100 !
b100 B
b100 P
b100 ^
#420000
b1010 "
b1010 @
b1010 U
b1010 A
b1010 I
1#
#480000
b100 '
0#
#483000
b10000 =
b10000 F
b10000 G
b0x0x1 ,
b0x0x1 ?
b0x0x1 W
b10000 1
b10000 C
b1011 3
b1011 X
b10000 :
b10000 N
b10000 R
b1100 5
b1100 Q
b1100 T
b11111000010000010000001111101011 9
b11111000010000010000001111101011 L
b11111000010000010000001111101011 _
b1000 !
b1000 B
b1000 P
b1000 ^
#540000
b101 "
b101 @
b101 U
b101 A
b101 I
1#
#600000
b101 '
0#
#603000
b11000 =
b11000 F
b11000 G
b0xx0x ,
b0xx0x ?
b0xx0x W
b11000 1
b11000 C
b1100 3
b1100 X
b11000 :
b11000 N
b11000 R
b10000 5
b10000 Q
b10000 T
b11111000010000011000001111101100 9
b11111000010000011000001111101100 L
b11111000010000011000001111101100 _
b1100 !
b1100 B
b1100 P
b1100 ^
#660000
b111111111011111010100111110111101010110110111110111011111111 "
b111111111011111010100111110111101010110110111110111011111111 @
b111111111011111010100111110111101010110110111110111011111111 U
b111111111011111010100111110111101010110110111110111011111111 A
b111111111011111010100111110111101010110110111110111011111111 I
1#
#720000
b110 '
0#
#723000
b0xxxx ?
b0xxxx W
b100000 =
b100000 F
b100000 G
b0xxxx ,
b100000 1
b100000 C
b1101 3
b1101 X
b100000 :
b100000 N
b100000 R
b10100 5
b10100 Q
b10100 T
b11111000010000100000001111101101 9
b11111000010000100000001111101101 L
b11111000010000100000001111101101 _
b10000 !
b10000 B
b10000 P
b10000 ^
#780000
b0 "
b0 @
b0 U
b0 A
b0 I
1#
#840000
b111 '
0#
#843000
bx "
bx @
bx U
b1011 ?
b1011 W
bx =
bx F
bx G
0<
b1 >
b1 E
b1 \
b0 +
b0 M
b0 ]
02
07
08
b1011 ,
bx 1
bx C
b10101010000 4
b10101010000 [
b1010 -
b1010 V
b1010 3
b1010 X
b1011000000 :
b1011000000 N
b1011000000 R
b11000 5
b11000 Q
b11000 T
b10101010000010110000000101001010 9
b10101010000010110000000101001010 L
b10101010000010110000000101001010 _
b10100 !
b10100 B
b10100 P
b10100 ^
#845000
b1111 "
b1111 @
b1111 U
b101 1
b101 C
b1111 =
b1111 F
b1111 G
b101 /
b101 H
b101 Y
b1010 0
b1010 D
b1010 Z
#900000
1#
#960000
b1000 '
0#
#963000
b0 "
b0 @
b0 U
1)
b0 =
b0 F
b0 G
b1010 ?
b1010 W
b0 >
b0 E
b0 \
b1010 ,
b10001010000 4
b10001010000 [
b1100 -
b1100 V
b1100 3
b1100 X
b1010000000 :
b1010000000 N
b1010000000 R
b11100 5
b11100 Q
b11100 T
b10001010000010100000000110001100 9
b10001010000010100000000110001100 L
b10001010000010100000000110001100 _
b11000 !
b11000 B
b11000 P
b11000 ^
#965000
b1111 "
b1111 @
b1111 U
b1111 1
b1111 C
0)
b1111 =
b1111 F
b1111 G
b1111 /
b1111 H
b1111 Y
b111111111011111010100111110111101010110110111110111011111111 0
b111111111011111010100111110111101010110110111110111011111111 D
b111111111011111010100111110111101010110110111110111011111111 Z
#1020000
1#
#1080000
b1001 '
0#
#1083000
b0xxxx "
b0xxxx @
b0xxxx U
b1100 ?
b1100 W
0.
b111 >
b111 E
b111 \
b11 +
b11 M
b11 ]
12
1;
x8
b1100 ,
b10110100000 4
b10110100000 [
b100 -
b100 V
b100 :
b100 N
b100 R
b100000 5
b100000 Q
b100000 T
b10110100000000000000000010001100 9
b10110100000000000000000010001100 L
b10110100000000000000000010001100 _
b11100 !
b11100 B
b11100 P
b11100 ^
#1085000
bx 0
bx D
bx Z
#1140000
1#
#1200000
b1010 '
0#
#1203000
bx =
bx F
bx G
bx "
bx @
bx U
1.
b10 >
b10 E
b10 \
b0 +
b0 M
b0 ]
02
0;
08
b1001 ,
b1001 ?
b1001 W
b10001011000 4
b10001011000 [
b1101 -
b1101 V
b1101 3
b1101 X
b1001000000 :
b1001000000 N
b1001000000 R
b100100 5
b100100 Q
b100100 T
b10001011000010010000000110101101 9
b10001011000010010000000110101101 L
b10001011000010010000000110101101 _
b100000 !
b100000 B
b100000 P
b100000 ^
#1205000
b1 "
b1 @
b1 U
b1 1
b1 C
b1 =
b1 F
b1 G
b1 /
b1 H
b1 Y
b0 0
b0 D
b0 Z
#1260000
1#
#1320000
b1011 '
0#
#1323000
b1111111111111111111111111111111111111111111111111111111111111111 "
b1111111111111111111111111111111111111111111111111111111111111111 @
b1111111111111111111111111111111111111111111111111111111111111111 U
b1111111111111111111111111111111111111111111111111111111111111111 =
b1111111111111111111111111111111111111111111111111111111111111111 F
b1111111111111111111111111111111111111111111111111111111111111111 G
b110 >
b110 E
b110 \
b11001011000 4
b11001011000 [
b1100 -
b1100 V
b1100 3
b1100 X
b101000 5
b101000 Q
b101000 T
b11001011000010010000000110001100 9
b11001011000010010000000110001100 L
b11001011000010010000000110001100 _
b100100 !
b100100 B
b100100 P
b100100 ^
#1325000
b1110 "
b1110 @
b1110 U
b1110 =
b1110 F
b1110 G
b1111 0
b1111 D
b1111 Z
#1380000
1#
#1440000
b1100 '
0#
#1443000
bx01 1
bx01 C
b1111111111111111111111111111111111111111111111111111111111110100 S
b0xxx0 "
b0xxx0 @
b0xxx0 U
b111x1 ?
b111x1 W
x<
0.
bx >
bx E
bx \
b10 +
b10 M
b10 ]
x2
1*
x;
x8
b111x1 ,
b10111111 4
b10111111 [
b11111 -
b11111 V
b11101 3
b11101 X
b1111111111111111111111111111111111111111111111111111111111111101 :
b1111111111111111111111111111111111111111111111111111111111111101 N
b1111111111111111111111111111111111111111111111111111111111111101 R
1O
b11100 5
b11100 Q
b11100 T
b10111111111111111111111111101 9
b10111111111111111111111111101 L
b10111111111111111111111111101 _
b101000 !
b101000 B
b101000 P
b101000 ^
#1445000
bx 1
bx C
bx /
bx H
bx Y
b0 0
b0 D
b0 Z
#1500000
1#
#1560000
b1101 '
0#
#1563000
bx "
bx @
bx U
bx =
bx F
bx G
0<
b111 >
b111 E
b111 \
b11 +
b11 M
b11 ]
12
0*
1;
b1100 ,
b1100 ?
b1100 W
b1000110000 S
b10110100000 4
b10110100000 [
b100 -
b100 V
b1100 3
b1100 X
b100 :
b100 N
b100 R
0O
b100000 5
b100000 Q
b100000 T
b10110100000000000000000010001100 9
b10110100000000000000000010001100 L
b10110100000000000000000010001100 _
b11100 !
b11100 B
b11100 P
b11100 ^
#1565000
b0xxx0 "
b0xxx0 @
b0xxx0 U
b1110 =
b1110 F
b1110 G
b1110 1
b1110 C
b1110 /
b1110 H
b1110 Y
bx 0
bx D
bx Z
#1620000
1#
#1680000
b1110 '
0#
#1683000
bx =
bx F
bx G
bx "
bx @
bx U
1.
b10 >
b10 E
b10 \
b0 +
b0 M
b0 ]
02
0;
08
b1001 ,
b1001 ?
b1001 W
b10001011000 4
b10001011000 [
b1101 -
b1101 V
b1101 3
b1101 X
b1001000000 :
b1001000000 N
b1001000000 R
b100100 5
b100100 Q
b100100 T
b10001011000010010000000110101101 9
b10001011000010010000000110101101 L
b10001011000010010000000110101101 _
b100000 !
b100000 B
b100000 P
b100000 ^
#1685000
b10 "
b10 @
b10 U
b1 1
b1 C
b10 =
b10 F
b10 G
b1 /
b1 H
b1 Y
b1 0
b1 D
b1 Z
#1740000
1#
#1800000
b1111 '
0#
#1803000
b0 "
b0 @
b0 U
1)
b0 =
b0 F
b0 G
b110 >
b110 E
b110 \
b11001011000 4
b11001011000 [
b1100 -
b1100 V
b1100 3
b1100 X
b101000 5
b101000 Q
b101000 T
b11001011000010010000000110001100 9
b11001011000010010000000110001100 L
b11001011000010010000000110001100 _
b100100 !
b100100 B
b100100 P
b100100 ^
#1805000
b1101 "
b1101 @
b1101 U
0)
b1101 =
b1101 F
b1101 G
b1110 0
b1110 D
b1110 Z
#1860000
1#
#1920000
b10000 '
0#
#1923000
bx01 1
bx01 C
b1111111111111111111111111111111111111111111111111111111111110100 S
b0xx0x "
b0xx0x @
b0xx0x U
b111x1 ?
b111x1 W
x<
0.
bx >
bx E
bx \
b10 +
b10 M
b10 ]
x2
1*
x;
x8
b111x1 ,
b10111111 4
b10111111 [
b11111 -
b11111 V
b11101 3
b11101 X
b1111111111111111111111111111111111111111111111111111111111111101 :
b1111111111111111111111111111111111111111111111111111111111111101 N
b1111111111111111111111111111111111111111111111111111111111111101 R
1O
b11100 5
b11100 Q
b11100 T
b10111111111111111111111111101 9
b10111111111111111111111111101 L
b10111111111111111111111111101 _
b101000 !
b101000 B
b101000 P
b101000 ^
#1925000
bx 1
bx C
bx /
bx H
bx Y
b0 0
b0 D
b0 Z
#1980000
1#
#2040000
b10001 '
0#
#2043000
bx "
bx @
bx U
bx =
bx F
bx G
0<
b111 >
b111 E
b111 \
b11 +
b11 M
b11 ]
12
0*
1;
b1100 ,
b1100 ?
b1100 W
b1000110000 S
b10110100000 4
b10110100000 [
b100 -
b100 V
b1100 3
b1100 X
b100 :
b100 N
b100 R
0O
b100000 5
b100000 Q
b100000 T
b10110100000000000000000010001100 9
b10110100000000000000000010001100 L
b10110100000000000000000010001100 _
b11100 !
b11100 B
b11100 P
b11100 ^
#2045000
b0xx0x "
b0xx0x @
b0xx0x U
b1101 =
b1101 F
b1101 G
b1101 1
b1101 C
b1101 /
b1101 H
b1101 Y
bx 0
bx D
bx Z
#2100000
1#
#2160000
b10010 '
0#
#2163000
bx =
bx F
bx G
bx "
bx @
bx U
1.
b10 >
b10 E
b10 \
b0 +
b0 M
b0 ]
02
0;
08
b1001 ,
b1001 ?
b1001 W
b10001011000 4
b10001011000 [
b1101 -
b1101 V
b1101 3
b1101 X
b1001000000 :
b1001000000 N
b1001000000 R
b100100 5
b100100 Q
b100100 T
b10001011000010010000000110101101 9
b10001011000010010000000110101101 L
b10001011000010010000000110101101 _
b100000 !
b100000 B
b100000 P
b100000 ^
#2165000
b11 "
b11 @
b11 U
b1 1
b1 C
b11 =
b11 F
b11 G
b1 /
b1 H
b1 Y
b10 0
b10 D
b10 Z
#2220000
1#
#2280000
b10011 '
0#
#2283000
b1 "
b1 @
b1 U
b1 =
b1 F
b1 G
b110 >
b110 E
b110 \
b11001011000 4
b11001011000 [
b1100 -
b1100 V
b1100 3
b1100 X
b101000 5
b101000 Q
b101000 T
b11001011000010010000000110001100 9
b11001011000010010000000110001100 L
b11001011000010010000000110001100 _
b100100 !
b100100 B
b100100 P
b100100 ^
#2285000
b1100 "
b1100 @
b1100 U
b1100 =
b1100 F
b1100 G
b1101 0
b1101 D
b1101 Z
#2340000
1#
#2400000
b10100 '
0#
#2403000
bx01 1
bx01 C
b1111111111111111111111111111111111111111111111111111111111110100 S
b0xx00 "
b0xx00 @
b0xx00 U
b111x1 ?
b111x1 W
x<
0.
bx >
bx E
bx \
b10 +
b10 M
b10 ]
x2
1*
x;
x8
b111x1 ,
b10111111 4
b10111111 [
b11111 -
b11111 V
b11101 3
b11101 X
b1111111111111111111111111111111111111111111111111111111111111101 :
b1111111111111111111111111111111111111111111111111111111111111101 N
b1111111111111111111111111111111111111111111111111111111111111101 R
1O
b11100 5
b11100 Q
b11100 T
b10111111111111111111111111101 9
b10111111111111111111111111101 L
b10111111111111111111111111101 _
b101000 !
b101000 B
b101000 P
b101000 ^
#2405000
bx 1
bx C
bx /
bx H
bx Y
b0 0
b0 D
b0 Z
#2460000
1#
#2520000
b10101 '
0#
#2523000
bx "
bx @
bx U
bx =
bx F
bx G
0<
b111 >
b111 E
b111 \
b11 +
b11 M
b11 ]
12
0*
1;
b1100 ,
b1100 ?
b1100 W
b1000110000 S
b10110100000 4
b10110100000 [
b100 -
b100 V
b1100 3
b1100 X
b100 :
b100 N
b100 R
0O
b100000 5
b100000 Q
b100000 T
b10110100000000000000000010001100 9
b10110100000000000000000010001100 L
b10110100000000000000000010001100 _
b11100 !
b11100 B
b11100 P
b11100 ^
#2525000
b0xx00 "
b0xx00 @
b0xx00 U
b1100 =
b1100 F
b1100 G
b1100 1
b1100 C
b1100 /
b1100 H
b1100 Y
bx 0
bx D
bx Z
#2580000
1#
#2640000
b10110 '
0#
#2643000
bx =
bx F
bx G
bx "
bx @
bx U
1.
b10 >
b10 E
b10 \
b0 +
b0 M
b0 ]
02
0;
08
b1001 ,
b1001 ?
b1001 W
b10001011000 4
b10001011000 [
b1101 -
b1101 V
b1101 3
b1101 X
b1001000000 :
b1001000000 N
b1001000000 R
b100100 5
b100100 Q
b100100 T
b10001011000010010000000110101101 9
b10001011000010010000000110101101 L
b10001011000010010000000110101101 _
b100000 !
b100000 B
b100000 P
b100000 ^
#2645000
b100 "
b100 @
b100 U
b1 1
b1 C
b100 =
b100 F
b100 G
b1 /
b1 H
b1 Y
b11 0
b11 D
b11 Z
#2700000
1#
#2760000
b10111 '
0#
#2763000
b10 "
b10 @
b10 U
b10 =
b10 F
b10 G
b110 >
b110 E
b110 \
b11001011000 4
b11001011000 [
b1100 -
b1100 V
b1100 3
b1100 X
b101000 5
b101000 Q
b101000 T
b11001011000010010000000110001100 9
b11001011000010010000000110001100 L
b11001011000010010000000110001100 _
b100100 !
b100100 B
b100100 P
b100100 ^
#2765000
b1011 "
b1011 @
b1011 U
b1011 =
b1011 F
b1011 G
b1100 0
b1100 D
b1100 Z
#2820000
1#
#2880000
b11000 '
0#
#2883000
bx01 1
bx01 C
b1111111111111111111111111111111111111111111111111111111111110100 S
b0x0xx "
b0x0xx @
b0x0xx U
b111x1 ?
b111x1 W
x<
0.
bx >
bx E
bx \
b10 +
b10 M
b10 ]
x2
1*
x;
x8
b111x1 ,
b10111111 4
b10111111 [
b11111 -
b11111 V
b11101 3
b11101 X
b1111111111111111111111111111111111111111111111111111111111111101 :
b1111111111111111111111111111111111111111111111111111111111111101 N
b1111111111111111111111111111111111111111111111111111111111111101 R
1O
b11100 5
b11100 Q
b11100 T
b10111111111111111111111111101 9
b10111111111111111111111111101 L
b10111111111111111111111111101 _
b101000 !
b101000 B
b101000 P
b101000 ^
#2885000
bx 1
bx C
bx /
bx H
bx Y
b0 0
b0 D
b0 Z
#2940000
1#
#3000000
b11001 '
0#
#3003000
bx "
bx @
bx U
bx =
bx F
bx G
0<
b111 >
b111 E
b111 \
b11 +
b11 M
b11 ]
12
0*
1;
b1100 ,
b1100 ?
b1100 W
b1000110000 S
b10110100000 4
b10110100000 [
b100 -
b100 V
b1100 3
b1100 X
b100 :
b100 N
b100 R
0O
b100000 5
b100000 Q
b100000 T
b10110100000000000000000010001100 9
b10110100000000000000000010001100 L
b10110100000000000000000010001100 _
b11100 !
b11100 B
b11100 P
b11100 ^
#3005000
b0x0xx "
b0x0xx @
b0x0xx U
b1011 =
b1011 F
b1011 G
b1011 1
b1011 C
b1011 /
b1011 H
b1011 Y
bx 0
bx D
bx Z
#3060000
1#
#3120000
b11010 '
0#
#3123000
bx =
bx F
bx G
bx "
bx @
bx U
1.
b10 >
b10 E
b10 \
b0 +
b0 M
b0 ]
02
0;
08
b1001 ,
b1001 ?
b1001 W
b10001011000 4
b10001011000 [
b1101 -
b1101 V
b1101 3
b1101 X
b1001000000 :
b1001000000 N
b1001000000 R
b100100 5
b100100 Q
b100100 T
b10001011000010010000000110101101 9
b10001011000010010000000110101101 L
b10001011000010010000000110101101 _
b100000 !
b100000 B
b100000 P
b100000 ^
#3125000
b101 "
b101 @
b101 U
b1 1
b1 C
b101 =
b101 F
b101 G
b1 /
b1 H
b1 Y
b100 0
b100 D
b100 Z
#3180000
1#
#3240000
b11011 '
0#
#3243000
b11 "
b11 @
b11 U
b11 =
b11 F
b11 G
b110 >
b110 E
b110 \
b11001011000 4
b11001011000 [
b1100 -
b1100 V
b1100 3
b1100 X
b101000 5
b101000 Q
b101000 T
b11001011000010010000000110001100 9
b11001011000010010000000110001100 L
b11001011000010010000000110001100 _
b100100 !
b100100 B
b100100 P
b100100 ^
#3245000
b1010 "
b1010 @
b1010 U
b1010 =
b1010 F
b1010 G
b1011 0
b1011 D
b1011 Z
#3300000
1#
#3360000
b11100 '
0#
#3363000
bx01 1
bx01 C
b1111111111111111111111111111111111111111111111111111111111110100 S
b0x0x0 "
b0x0x0 @
b0x0x0 U
b111x1 ?
b111x1 W
x<
0.
bx >
bx E
bx \
b10 +
b10 M
b10 ]
x2
1*
x;
x8
b111x1 ,
b10111111 4
b10111111 [
b11111 -
b11111 V
b11101 3
b11101 X
b1111111111111111111111111111111111111111111111111111111111111101 :
b1111111111111111111111111111111111111111111111111111111111111101 N
b1111111111111111111111111111111111111111111111111111111111111101 R
1O
b11100 5
b11100 Q
b11100 T
b10111111111111111111111111101 9
b10111111111111111111111111101 L
b10111111111111111111111111101 _
b101000 !
b101000 B
b101000 P
b101000 ^
#3365000
bx 1
bx C
bx /
bx H
bx Y
b0 0
b0 D
b0 Z
#3420000
1#
#3480000
b11101 '
0#
#3483000
bx "
bx @
bx U
bx =
bx F
bx G
0<
b111 >
b111 E
b111 \
b11 +
b11 M
b11 ]
12
0*
1;
b1100 ,
b1100 ?
b1100 W
b1000110000 S
b10110100000 4
b10110100000 [
b100 -
b100 V
b1100 3
b1100 X
b100 :
b100 N
b100 R
0O
b100000 5
b100000 Q
b100000 T
b10110100000000000000000010001100 9
b10110100000000000000000010001100 L
b10110100000000000000000010001100 _
b11100 !
b11100 B
b11100 P
b11100 ^
#3485000
b0x0x0 "
b0x0x0 @
b0x0x0 U
b1010 =
b1010 F
b1010 G
b1010 1
b1010 C
b1010 /
b1010 H
b1010 Y
bx 0
bx D
bx Z
#3540000
1#
#3600000
b11110 '
0#
#3603000
bx =
bx F
bx G
bx "
bx @
bx U
1.
b10 >
b10 E
b10 \
b0 +
b0 M
b0 ]
02
0;
08
b1001 ,
b1001 ?
b1001 W
b10001011000 4
b10001011000 [
b1101 -
b1101 V
b1101 3
b1101 X
b1001000000 :
b1001000000 N
b1001000000 R
b100100 5
b100100 Q
b100100 T
b10001011000010010000000110101101 9
b10001011000010010000000110101101 L
b10001011000010010000000110101101 _
b100000 !
b100000 B
b100000 P
b100000 ^
#3605000
b110 "
b110 @
b110 U
b1 1
b1 C
b110 =
b110 F
b110 G
b1 /
b1 H
b1 Y
b101 0
b101 D
b101 Z
#3660000
1#
#3720000
b11111 '
0#
#3723000
b100 "
b100 @
b100 U
b100 =
b100 F
b100 G
b110 >
b110 E
b110 \
b11001011000 4
b11001011000 [
b1100 -
b1100 V
b1100 3
b1100 X
b101000 5
b101000 Q
b101000 T
b11001011000010010000000110001100 9
b11001011000010010000000110001100 L
b11001011000010010000000110001100 _
b100100 !
b100100 B
b100100 P
b100100 ^
#3725000
b1001 "
b1001 @
b1001 U
b1001 =
b1001 F
b1001 G
b1010 0
b1010 D
b1010 Z
#3780000
1#
#3840000
b100000 '
0#
#3843000
bx01 1
bx01 C
b1111111111111111111111111111111111111111111111111111111111110100 S
b0x00x "
b0x00x @
b0x00x U
b111x1 ?
b111x1 W
x<
0.
bx >
bx E
bx \
b10 +
b10 M
b10 ]
x2
1*
x;
x8
b111x1 ,
b10111111 4
b10111111 [
b11111 -
b11111 V
b11101 3
b11101 X
b1111111111111111111111111111111111111111111111111111111111111101 :
b1111111111111111111111111111111111111111111111111111111111111101 N
b1111111111111111111111111111111111111111111111111111111111111101 R
1O
b11100 5
b11100 Q
b11100 T
b10111111111111111111111111101 9
b10111111111111111111111111101 L
b10111111111111111111111111101 _
b101000 !
b101000 B
b101000 P
b101000 ^
#3845000
bx 1
bx C
bx /
bx H
bx Y
b0 0
b0 D
b0 Z
#3900000
1#
#3960000
b100001 '
0#
#3963000
bx "
bx @
bx U
bx =
bx F
bx G
0<
b111 >
b111 E
b111 \
b11 +
b11 M
b11 ]
12
0*
1;
b1100 ,
b1100 ?
b1100 W
b1000110000 S
b10110100000 4
b10110100000 [
b100 -
b100 V
b1100 3
b1100 X
b100 :
b100 N
b100 R
0O
b100000 5
b100000 Q
b100000 T
b10110100000000000000000010001100 9
b10110100000000000000000010001100 L
b10110100000000000000000010001100 _
b11100 !
b11100 B
b11100 P
b11100 ^
#3965000
b0x00x "
b0x00x @
b0x00x U
b1001 =
b1001 F
b1001 G
b1001 1
b1001 C
b1001 /
b1001 H
b1001 Y
bx 0
bx D
bx Z
#4020000
1#
#4080000
b100010 '
0#
#4083000
bx =
bx F
bx G
bx "
bx @
bx U
1.
b10 >
b10 E
b10 \
b0 +
b0 M
b0 ]
02
0;
08
b1001 ,
b1001 ?
b1001 W
b10001011000 4
b10001011000 [
b1101 -
b1101 V
b1101 3
b1101 X
b1001000000 :
b1001000000 N
b1001000000 R
b100100 5
b100100 Q
b100100 T
b10001011000010010000000110101101 9
b10001011000010010000000110101101 L
b10001011000010010000000110101101 _
b100000 !
b100000 B
b100000 P
b100000 ^
#4085000
b111 "
b111 @
b111 U
b1 1
b1 C
b111 =
b111 F
b111 G
b1 /
b1 H
b1 Y
b110 0
b110 D
b110 Z
#4140000
1#
#4200000
b100011 '
0#
#4203000
b101 "
b101 @
b101 U
b101 =
b101 F
b101 G
b110 >
b110 E
b110 \
b11001011000 4
b11001011000 [
b1100 -
b1100 V
b1100 3
b1100 X
b101000 5
b101000 Q
b101000 T
b11001011000010010000000110001100 9
b11001011000010010000000110001100 L
b11001011000010010000000110001100 _
b100100 !
b100100 B
b100100 P
b100100 ^
#4205000
b1000 "
b1000 @
b1000 U
b1000 =
b1000 F
b1000 G
b1001 0
b1001 D
b1001 Z
#4260000
1#
#4320000
b100100 '
0#
#4323000
bx01 1
bx01 C
b1111111111111111111111111111111111111111111111111111111111110100 S
b0x000 "
b0x000 @
b0x000 U
b111x1 ?
b111x1 W
x<
0.
bx >
bx E
bx \
b10 +
b10 M
b10 ]
x2
1*
x;
x8
b111x1 ,
b10111111 4
b10111111 [
b11111 -
b11111 V
b11101 3
b11101 X
b1111111111111111111111111111111111111111111111111111111111111101 :
b1111111111111111111111111111111111111111111111111111111111111101 N
b1111111111111111111111111111111111111111111111111111111111111101 R
1O
b11100 5
b11100 Q
b11100 T
b10111111111111111111111111101 9
b10111111111111111111111111101 L
b10111111111111111111111111101 _
b101000 !
b101000 B
b101000 P
b101000 ^
#4325000
bx 1
bx C
bx /
bx H
bx Y
b0 0
b0 D
b0 Z
#4380000
1#
#4440000
b100101 '
0#
#4443000
bx "
bx @
bx U
bx =
bx F
bx G
0<
b111 >
b111 E
b111 \
b11 +
b11 M
b11 ]
12
0*
1;
b1100 ,
b1100 ?
b1100 W
b1000110000 S
b10110100000 4
b10110100000 [
b100 -
b100 V
b1100 3
b1100 X
b100 :
b100 N
b100 R
0O
b100000 5
b100000 Q
b100000 T
b10110100000000000000000010001100 9
b10110100000000000000000010001100 L
b10110100000000000000000010001100 _
b11100 !
b11100 B
b11100 P
b11100 ^
#4445000
b0x000 "
b0x000 @
b0x000 U
b1000 =
b1000 F
b1000 G
b1000 1
b1000 C
b1000 /
b1000 H
b1000 Y
bx 0
bx D
bx Z
#4500000
1#
#4560000
b100110 '
0#
#4563000
bx =
bx F
bx G
bx "
bx @
bx U
1.
b10 >
b10 E
b10 \
b0 +
b0 M
b0 ]
02
0;
08
b1001 ,
b1001 ?
b1001 W
b10001011000 4
b10001011000 [
b1101 -
b1101 V
b1101 3
b1101 X
b1001000000 :
b1001000000 N
b1001000000 R
b100100 5
b100100 Q
b100100 T
b10001011000010010000000110101101 9
b10001011000010010000000110101101 L
b10001011000010010000000110101101 _
b100000 !
b100000 B
b100000 P
b100000 ^
#4565000
b1000 "
b1000 @
b1000 U
b1 1
b1 C
b1000 =
b1000 F
b1000 G
b1 /
b1 H
b1 Y
b111 0
b111 D
b111 Z
#4620000
1#
#4680000
b100111 '
0#
#4683000
b110 "
b110 @
b110 U
b110 =
b110 F
b110 G
b110 >
b110 E
b110 \
b11001011000 4
b11001011000 [
b1100 -
b1100 V
b1100 3
b1100 X
b101000 5
b101000 Q
b101000 T
b11001011000010010000000110001100 9
b11001011000010010000000110001100 L
b11001011000010010000000110001100 _
b100100 !
b100100 B
b100100 P
b100100 ^
#4685000
b111 "
b111 @
b111 U
b111 =
b111 F
b111 G
b1000 0
b1000 D
b1000 Z
#4740000
1#
#4800000
b101000 '
0#
